INDEX VERSION 1.127+D:\GitTutorial\.metadata\.plugins\org.eclipse.jdt.core
3349413686.index
2690778029.index
2899965704.index
3000975533.index
3414683811.index
1429456332.index
2292250293.index
51467596.index
2345470644.index
1923297441.index
4020602821.index
1233791618.index
1870255979.index
2959957318.index
3618673065.index
185975254.index
1657330681.index
452330869.index
3706135349.index
